Introduction to R
…
.row.bg-main1[.content.vmiddle.center[
.font5[Model Residuals]
]]

.row[.content.left[

```r
*resids <- unnest(by_country, resids)

resids
```

```
## # A tibble: 1,704 x 7
##    country     continent  year lifeExp      pop gdpPercap   resid
##    <fct>       <fct>     <int>   <dbl>    <int>     <dbl>   <dbl>
##  1 Afghanistan Asia       1952    28.8  8425333      779. -1.11  
##  2 Afghanistan Asia       1957    30.3  9240934      821. -0.952 
##  3 Afghanistan Asia       1962    32.0 10267083      853. -0.664 
##  4 Afghanistan Asia       1967    34.0 11537966      836. -0.0172
##  5 Afghanistan Asia       1972    36.1 13079460      740.  0.674 
##  6 Afghanistan Asia       1977    38.4 14880372      786.  1.65  
##  7 Afghanistan Asia       1982    39.9 12881816      978.  1.69  
##  8 Afghanistan Asia       1987    40.8 13867957      852.  1.28  
##  9 Afghanistan Asia       1992    41.7 16317921      649.  0.754 
## 10 Afghanistan Asia       1997    41.8 22227415      635. -0.534 
## # ... with 1,694 more rows
```
…
.row.bg-main1[.content.vmiddle.center[
.font5[Model - Life Expectancy]
]]

.row[.content.left[

```r
glance %>% 
* arrange(r.squared)
```

```
## # A tibble: 142 x 13
##    country continent r.squared adj.r.squared sigma statistic p.value    df
##    <fct>   <fct>         <dbl>         <dbl> <dbl>     <dbl>   <dbl> <int>
##  1 Rwanda  Africa       0.0172      -0.0811   6.56     0.175  0.685      2
##  2 Botswa… Africa       0.0340      -0.0626   6.11     0.352  0.566      2
##  3 Zimbab… Africa       0.0562      -0.0381   7.21     0.596  0.458      2
##  4 Zambia  Africa       0.0598      -0.0342   4.53     0.636  0.444      2
##  5 Swazil… Africa       0.0682      -0.0250   6.64     0.732  0.412      2
##  6 Lesotho Africa       0.0849      -0.00666  5.93     0.927  0.358      2
##  7 Cote d… Africa       0.283        0.212    3.93     3.95   0.0748     2
##  8 South … Africa       0.312        0.244    4.74     4.54   0.0588     2
##  9 Uganda  Africa       0.342        0.276    3.19     5.20   0.0457     2
## 10 Congo,… Africa       0.348        0.283    2.43     5.34   0.0434     2
## # ... with 132 more rows, and 5 more variables: logLik <dbl>, AIC <dbl>,
## #   BIC <dbl>, deviance <dbl>, df.residual <int>
```
…
